…
    Warning: 382 parsing failures.
     row col  expected    actual                            file
    2384  -- 1 columns 4 columns 'C:/ThreatHunting/lab4/dns.log'
    4209  -- 1 columns 3 columns 'C:/ThreatHunting/lab4/dns.log'
    4211  -- 1 columns 3 columns 'C:/ThreatHunting/lab4/dns.log'
    4212  -- 1 columns 3 columns 'C:/ThreatHunting/lab4/dns.log'
    5232  -- 1 columns 3 columns 'C:/ThreatHunting/lab4/dns.log'
    .... ... ......... ......... ...............................
    See problems(...) for more details.

``` r
log
```

    # A tibble: 427,935 × 1
       X1                                                                           
       <chr>                                                                        
     1 "1331901005.510000\tCWGtK431H9XuaTN4fi\t192.168.202.100\t45658\t192.168.27.2…
     2 "1331901015.070000\tC36a282Jljz7BsbGH\t192.168.202.76\t137\t192.168.202.255\…
     3 "1331901015.820000\tC36a282Jljz7BsbGH\t192.168.202.76\t137\t192.168.202.255\…
     4 "1331901016.570000\tC36a282Jljz7BsbGH\t192.168.202.76\t137\t192.168.202.255\…
     5 "1331901005.860000\tC36a282Jljz7BsbGH\t192.168.202.76\t137\t192.168.202.255\…
     6 "1331901006.610000\tC36a282Jljz7BsbGH\t192.168.202.76\t137\t192.168.202.255\…
     7 "1331901007.360000\tC36a282Jljz7BsbGH\t192.168.202.76\t137\t192.168.202.255\…
     8 "1331901006.370000\tClEZCt3GLkJdtGGmAa\t192.168.202.89\t137\t192.168.202.255…
     9 "1331901007.120000\tClEZCt3GLkJdtGGmAa\t192.168.202.89\t137\t192.168.202.255…
    10 "1331901007.870000\tClEZCt3GLkJdtGGmAa\t192.168.202.89\t137\t192.168.202.255…
    # ℹ 427,925 more rows
…
``` r
df
```

    # A tibble: 427,934 × 23
       `1331901005.510000` CWGtK431H9XuaTN4fi `192.168.202.100` `45658`
                     <dbl> <chr>              <chr>               <dbl>
     1         1331901015. C36a282Jljz7BsbGH  192.168.202.76        137
     2         1331901016. C36a282Jljz7BsbGH  192.168.202.76        137
     3         1331901017. C36a282Jljz7BsbGH  192.168.202.76        137
     4         1331901006. C36a282Jljz7BsbGH  192.168.202.76        137
     5         1331901007. C36a282Jljz7BsbGH  192.168.202.76        137
     6         1331901007. C36a282Jljz7BsbGH  192.168.202.76        137
     7         1331901006. ClEZCt3GLkJdtGGmAa 192.168.202.89        137
     8         1331901007. ClEZCt3GLkJdtGGmAa 192.168.202.89        137
     9         1331901008. ClEZCt3GLkJdtGGmAa 192.168.202.89        137
    10         1331901007. CpD4i41jyaYqmTBMH3 192.168.202.89        137
    # ℹ 427,924 more rows
    # ℹ 19 more variables: `192.168.27.203` <chr>, `137` <dbl>, udp <chr>,
    #   `33008` <dbl>,
    #   `*\\x00\\x00\\x00\\x00\\x00\\x00\\x00\\x00\\x00\\x00\\x00\\x00\\x00\\x00` <chr>,
    #   `1...10` <chr>, C_INTERNET <chr>, `33` <chr>, SRV <chr>, `0` <chr>,
    #   NOERROR <chr>, F...16 <lgl>, F...17 <lgl>, F...18 <lgl>, F...19 <lgl>,
    #   `1...20` <dbl>, `-...21` <chr>, `-...22` <chr>, F...23 <lgl>
…
