…
### 2. Обнаружить устройства, которые НЕ рандомизируют свой MAC адрес

``` r
df2 %>%
  filter(grepl("(..:..:..:)(..:..:..)", BSSID) 
         & !is.na(Probed.ESSIDs)) %>%
  select(BSSID, Probed.ESSIDs) %>%
  group_by(BSSID, Probed.ESSIDs) %>%
  filter(n() > 1) %>%
  arrange(BSSID) %>%
  unique()
```

    # A tibble: 27 × 2
    # Groups:   BSSID, Probed.ESSIDs [27]
       BSSID                Probed.ESSIDs
       <chr>                <chr>        
     1 " 00:25:00:FF:94:73" ""           
     2 " 00:26:99:BA:75:80" "GIVC"       
     3 " 00:26:99:BA:75:80" ""           
     4 " 00:26:99:F2:7A:E2" "GIVC"       
     5 " 08:3A:2F:56:35:FE" ""           
     6 " 0C:80:63:A9:6E:EE" "KOTIKI_XXX" 
     7 " 1E:93:E3:1B:3C:F4" "Galaxy A71" 
     8 " 6E:C7:EC:16:DA:1A" "Cnet"       
     9 " 86:DF:BF:E4:2F:23" ""           
    10 " 8E:55:4A:85:5B:01" ""           
    # ℹ 17 more rows
…
